module embedPrometheus

go 1.22.1

require (
	github.com/alecthomas/kingpin/v2 v2.4.0
	github.com/beevik/ntp v1.3.0
	github.com/coreos/go-systemd/v22 v22.5.0
	github.com/dennwc/btrfs v0.0.0-20230312211831-a1f570bd01a1
	github.com/ema/qdisc v1.0.0
	github.com/go-kit/log v0.2.1
	github.com/godbus/dbus/v5 v5.1.0
	github.com/hashicorp/go-envparse v0.1.0
	github.com/hodgesds/perf-utils v0.7.0
	github.com/illumos/go-kstat v0.0.0-20210513183136-173c9b0a9973
	github.com/josharian/native v1.1.0
	github.com/jsimonetti/rtnetlink v1.3.5
	github.com/lufia/iostat v1.2.1
	github.com/mattn/go-xmlrpc v0.0.3
	github.com/mdlayher/ethtool v0.1.0
	github.com/mdlayher/netlink v1.7.2
	github.com/mdlayher/wifi v0.1.0
	github.com/opencontainers/selinux v1.11.0
	github.com/prometheus-community/go-runit v0.1.0
	github.com/prometheus/client_golang v1.19.0
	github.com/prometheus/client_model v0.6.0
	github.com/prometheus/common v0.53.0
	github.com/prometheus/exporter-toolkit v0.11.0
	github.com/prometheus/node_exporter v1.7.0
	github.com/prometheus/procfs v0.12.0
	github.com/safchain/ethtool v0.3.0
	golang.org/x/exp v0.0.0-20230522175609-2e198f4a06a1
	golang.org/x/sys v0.19.0
	howett.net/plist v1.0.0
)

require (
	github.com/alecthomas/units v0.0.0-20211218093645-b94a6e3cc137 // indirect
	github.com/beorn7/perks v1.0.1 // indirect
	github.com/cespare/xxhash/v2 v2.2.0 // indirect
	github.com/davecgh/go-spew v1.1.1 // indirect
	github.com/dennwc/ioctl v1.0.0 // indirect
	github.com/facebook/time v0.0.0-20240419201005-e4f24e18edf7 // indirect
	github.com/go-logfmt/logfmt v0.5.1 // indirect
	github.com/golang/protobuf v1.5.3 // indirect
	github.com/google/go-cmp v0.6.0 // indirect
	github.com/jpillora/backoff v1.0.0 // indirect
	github.com/mdlayher/genetlink v1.3.2 // indirect
	github.com/mdlayher/socket v0.4.1 // indirect
	github.com/mwitkow/go-conntrack v0.0.0-20190716064945-2f068394615f // indirect
	github.com/sirupsen/logrus v1.9.0 // indirect
	github.com/superq/chrony_exporter v0.10.0 // indirect
	github.com/xhit/go-str2duration/v2 v2.1.0 // indirect
	go.uber.org/atomic v1.7.0 // indirect
	go.uber.org/multierr v1.6.0 // indirect
	golang.org/x/crypto v0.22.0 // indirect
	golang.org/x/net v0.24.0 // indirect
	golang.org/x/oauth2 v0.18.0 // indirect
	golang.org/x/sync v0.5.0 // indirect
	golang.org/x/text v0.14.0 // indirect
	google.golang.org/appengine v1.6.7 // indirect
	google.golang.org/protobuf v1.33.0 // indirect
	gopkg.in/yaml.v2 v2.4.0 // indirect
)
